	var a=new draw2d.Port("a"); 
				var b=new draw2d.Port("b");
				a.ZOrderBaseIndex=5000;
				b.ZOrderBaseIndex=5000;
				a.setPosition(20,20);
				b.setPosition(2000,2000);
//				var cmds = new draw2d.CommandConnect(workflow, startPort,
//						endPort);
//				workflow.getCommandStack().execute(cmds);
				
				
				 var connection = new draw2d.Connection();
				 console.info(connection);
			      connection.setSource(a);
			      connection.setTarget(b);
			      connection.setBackgroundColor(new draw2d.Color(0,0,0));
			      connection.setLineWidth(2);
			      workflow.addFigure(connection);