序列,企业名称,手机号码,邮箱,联系人,职位,"办公座机
",手机,传真,邮箱,"供应商全称
",供应商类型,办公地址,注册地址,工厂地址,企业性质,企业法人,成立日期,员工总人数,管理人数,技术人数,厂地面积,企业网址,注册资金,营业执照号,执照有效期,经营许可证号,纳税人登记号,组织机构代码号,行业资质,年产量,业务覆盖范围,分支机构,经营内容,企业及产品荣誉情况,同行业绩情况,开户银行许可证,开户银行联行号,开户银行,银行帐号,税率,默认申报纳税类型,年销售额,企业年所得税,认证状况,主要生产设备名称,主要生产设备品牌,主要生产设备数量,主要生产设备产能,主要生产设备使用年限,主要检测设备名称,主要检测设备品牌,主要检测设备数量,主要检测设备产能,主要检测设备使用年限,原材料信息,与京东合作过,现合作用户,与先合作用户考察,备注
,京东尚科技有限公司,13651221487,yfwangyunlong@jd.com,王云龙,工程师,010-58235261,13651221487,010-58235001,yfwangyunlong@jd.com,京东尚科技有限公司,服务类,,,,,,,,,,,,,,,,,,,,,,,,,,,,,,,,,,,,,,,,,,,,,,,,
